LAMASUSSS downscaling ABC — a tutorial using downscalr
…
results_DS <- downscalr::downscale(targets = LUC_targets_example, 
                                    start.areas =  start_map_example, 
                                    xmat = X_long, 
                                    betas = beta_hat_mean_long)
#> Warning in complete_targets(targets): Column class has been changed in targets!
#> Warning in complete_areas(start.areas): Column class has been changed in
#> start.areas!
#> Warning in complete_xmat(xmat): Column class has been changed in xmat!
#> Warning in complete_betas(betas): Column class has been changed in betas!
####summary and print of downscalr output object
summary(results_DS)
#> $check.targets
#> # A tibble: 90 × 6
#>    lu.from  lu.to  times target downscale.value difference
#>    <chr>    <chr>  <chr>  <dbl>           <dbl>      <dbl>
#>  1 Cropland Forest 2010     0               0     0       
#>  2 Cropland Forest 2020   268.            268.    2.98e-13
#>  3 Cropland Forest 2030     0               0     0       
#>  4 Cropland Forest 2040   125.            125.   -1.12e-13
#>  5 Cropland Forest 2050    45.3            45.3  -7.53e-14
#>  6 Cropland Forest 2060     0               0     0       
#>  7 Cropland Forest 2070     0               0     0       
#>  8 Cropland Forest 2080     0               0     0       
#>  9 Cropland Forest 2090     0               0     0       
#> 10 Cropland Forest 2100     0               0     0       
#> # ℹ 80 more rows
…
                                    start.areas =  start_map_example, 
                                    xmat = X_long, 
                                    betas = beta_hat_mean_long,
                                    restrictions=n2k_restrictions_sub)
#> Warning in complete_targets(targets): Column class has been changed in targets!
#> Warning in complete_areas(start.areas): Column class has been changed in
#> start.areas!
#> Warning in complete_xmat(xmat): Column class has been changed in xmat!
#> Warning in complete_betas(betas): Column class has been changed in betas!
#> Warning in complete_restrictions(restrictions, xmat): Column class has been
#> changed in restrictions!
####summary and print of downscalr output object
summary(results_DS)
#> $check.targets
#> # A tibble: 90 × 6
#>    lu.from  lu.to  times target downscale.value difference
#>    <chr>    <chr>  <chr>  <dbl>           <dbl>      <dbl>
#>  1 Cropland Forest 2010     0               0     0       
#>  2 Cropland Forest 2020   268.            268.   -3.15e-13
#>  3 Cropland Forest 2030     0               0     0       
#>  4 Cropland Forest 2040   125.            125.    1.01e-13
#>  5 Cropland Forest 2050    45.3            45.3   5.13e-14
#>  6 Cropland Forest 2060     0               0     0       
#>  7 Cropland Forest 2070     0               0     0       
#>  8 Cropland Forest 2080     0               0     0       
#>  9 Cropland Forest 2090     0               0     0       
#> 10 Cropland Forest 2100     0               0     0       
#> # ℹ 80 more rows
…
